{"total": 966, "offset": 0, "next": 3, "data": [{"paperId": "d66b49aa6305b62b0a17c662fa197532794932ec", "externalIds": {"DOI": "10.1177/26318318231221948", "CorpusId": 267413411}, "url": "https://www.semanticscholar.org/paper/d66b49aa6305b62b0a17c662fa197532794932ec", "title": "Surviving Childhood Sexual Abuse: A Qualitative Study of the Long-Term Consequences of Childhood Sexual Abuse on Adult Women's Mental Health", "venue": "Journal of Psychosexual Health", "year": 2023, "journal": {"name": "Journal of Psychosexual Health", "pages": "253 - 262", "volume": "5"}, "authors": [{"authorId": "2282547662", "name": "Krishnamani Bhagabati"}, {"authorId": "2249439587", "name": "Manukrishnan"}, {"authorId": "2306253512", "name": "Orcid iD Manukrishnan"}]}, {"paperId": "6e78632084b19764f66a19ecce35173d6a9421b7", "externalIds": {"DOI": "10.69569/jip.2024.0660", "CorpusId": 275288530}, "url": "https://www.semanticscholar.org/paper/6e78632084b19764f66a19ecce35173d6a9421b7", "title": "Love of the Lotus: Exploring Romantic Relationships Among Adult Survivors of Childhood Sexual Abuse", "venue": "Journal of Interdisciplinary Perspectives", "year": 2025, "journal": {"name": "Journal of Interdisciplinary Perspectives"}, "authors": [{"authorId": "2338463166", "name": "Charles Frederick Canoy"}]}, {"paperId": "8c64ab646c108d21a2d6debedf46f5ef1ccdaf71", "externalIds": {"MAG": "3110597788", "PubMedCentral": "7717684", "DOI": "10.1080/20008198.2020.1815282", "CorpusId": 228084285, "PubMed": "33312451"}, "url": "https://www.semanticscholar.org/paper/8c64ab646c108d21a2d6debedf46f5ef1ccdaf71", "title": "Predictors and correlates of lifetime and persistent non-suicidal self-injury and suicide attempts among adult survivors of childhood sexual abuse", "venue": "European Journal of Psychotraumatology", "year": 2020, "journal": {"name": "European Journal of Psychotraumatology", "volume": "11"}, "authors": [{"authorId": "3533050", "name": "Iris M. Steine"}, {"authorId": "1435855393", "name": "Brittany N. Nielsen"}, {"authorId": "49100366", "name": "Patricia A Porter"}, {"authorId": "5584248", "name": "J. Krystal"}, {"authorId": "3908307", "name": "D. Winje"}, {"authorId": "8049970", "name": "J. Gronli"}, {"authorId": "5364578", "name": "A. Milde"}, {"authorId": "4480533", "name": "B. Bjorvatn"}, {"authorId": "6758435", "name": "I. Nordhus"}, {"authorId": "1700949", "name": "S. Pallesen"}]}
]}